Area_Normalized, Area, Major_axis, Minor_axis, Ratio_axis, Convex_Hull, angle, Relation_Neighbour_Area, Relation_Neighbour_Major_Axis, Relation_Neighbour_Minor_Axis, Relation_Neighbour_Ratio_Axis, Relation_Neighbour_Convex_Hull, Relation_Neighbour_Angle, Strength, Clustering_Coefficient, Eccentricity, Betweenness, Average_NoN, Centroid_Descriptor, Area_Descriptor, Ratio_Descriptor,Class
7.923226255884446845e-01,6.752269779507134029e-01,5.935507888151122513e-01,7.668180974589529075e-01,1.490888061002961784e-01,9.729577729344947024e-01,1.903934746584598769e-01,1.536058848577538105e-01,3.324427670237601468e-02,4.455185233840656123e-01,4.244600330581277392e-01,8.451409374628481297e-01,2.276195847689895801e-01,8.021360181029493219e-01,8.502131025734165348e-01,5.926308444029523281e-01,2.415725134284126552e-01,3.636363636363686425e-01,8.754553180309829763e-01,2.054287350287073433e-01,7.263408090381805182e-02,1.000000000000000000e+00
7.078874647040298562e-01,5.631647211413748355e-01,7.178430288323839337e-01,5.835816042071848564e-01,4.750710778218675823e-01,5.237574665978900201e-01,9.525782543027814242e-01,7.589587770876124462e-02,5.261589181264874071e-01,2.076311111696898248e-01,4.996221218648391194e-01,0.000000000000000000e+00,9.009200484933024278e-01,7.277956836073413704e-01,8.014863713037745363e-01,9.094148086592729330e-01,1.032752978946718525e-01,4.545454545454593598e-01,0.000000000000000000e+00,8.735884343167338306e-01,3.956843213277505544e-01,1.000000000000000000e+00
8.147205958697605332e-01,7.398184176394293488e-01,1.000000000000000000e+00,5.756672859682202548e-01,7.657678833706085264e-01,7.964550766166405005e-01,8.628082392167065739e-01,6.155172346616299972e-01,1.000000000000000000e+00,4.370326075225191564e-01,6.885372204351166703e-01,6.414160366939708480e-01,6.237921611247876363e-01,8.790952351873535520e-01,9.374489874929798905e-01,5.010926604369407844e-01,4.891492251651540224e-01,5.454545454545493000e-01,1.697335013901459522e-01,6.419692859280107244e-01,0.000000000000000000e+00,1.000000000000000000e+00
4.658627871631852990e-01,3.089494163424124640e-01,3.121189926650733693e-01,3.873589763485547066e-01,3.137383681475124919e-01,9.454663496396759070e-01,0.000000000000000000e+00,3.404648171398033663e-01,8.215185932351480591e-02,5.101120475583311720e-01,3.176888143498886596e-01,7.462432962192954156e-01,0.000000000000000000e+00,4.379020226030346241e-01,4.436297624681939666e-01,1.060104715397265918e-01,1.000000000000000000e+00,5.454545454545493000e-01,3.784774999237706661e-01,1.506635545472608251e-01,7.892306067397336644e-01,1.000000000000000000e+00
4.063960530393518900e-01,2.677042801556420160e-01,2.267105678224014542e-01,3.884494544408921834e-01,2.151459561194612180e-01,7.812996841712928076e-01,2.547226316214638020e-01,6.418909192309332212e-01,4.499575697990583212e-01,5.808944249532929094e-01,2.263809596862079998e-01,1.000000000000000000e+00,1.460924703688684378e-01,2.943632173060567458e-01,7.636260961289571825e-02,1.000000000000000000e+00,0.000000000000000000e+00,5.454545454545493000e-01,7.038006915086264526e-02,2.379579780754168539e-01,4.008418937078582489e-02,1.000000000000000000e+00
6.650344762108174601e-01,5.284046692607003992e-01,5.084958908529908506e-01,5.982557489176326682e-01,2.510516888097814037e-01,7.692088662717523340e-01,4.732295093532622454e-01,5.221822001050496764e-01,2.201325129005204939e-01,5.727890561627718702e-01,0.000000000000000000e+00,5.914923290475554429e-01,3.409786883587168083e-01,5.154073987932145107e-01,5.257150337689218134e-01,2.922964995891821904e-01,6.381428659628326505e-01,2.727272727272786468e-01,1.048211605991065942e-01,4.131063327136282881e-01,3.661003633318559575e-02,1.000000000000000000e+00
4.266527897345021580e-01,2.630350194552529275e-01,2.233167534767579177e-01,4.060853027294407669e-01,1.882450683870821317e-01,8.569599744906919447e-01,5.902033789572556088e-01,3.696762026609068941e-01,2.812052945729532835e-02,5.534077111548049155e-01,1.442926862632843699e-01,7.518246259821461663e-01,3.872766888128941765e-01,3.440200898259498374e-01,3.702921790361964338e-01,3.920325977070346357e-01,7.452923380873001102e-01,4.545454545454593598e-01,4.761263373351824479e-01,3.345207871455340709e-01,4.917560945012139362e-01,1.000000000000000000e+00
7.645314338723385728e-01,6.350194552529182523e-01,7.236216397911172660e-01,7.186963082065057629e-01,3.157898203727831365e-01,7.640962224191190089e-01,2.295743741575462515e-01,4.468254669400948953e-01,7.647385630147338631e-01,4.448980549770963910e-01,6.811860274977280527e-01,6.425729337629235705e-01,1.855952845272313134e-01,9.466023402945038523e-01,1.000000000000000000e+00,2.918729035790212367e-01,8.066925973945792139e-01,6.363636363636393511e-01,2.952138601798908746e-01,3.981469872140597777e-01,6.206209144098472352e-01,1.000000000000000000e+00
6.765814545946874370e-01,5.297016861219195905e-01,8.646025917041079145e-01,3.574623654068072032e-01,1.000000000000000000e+00,6.772913850269611791e-01,1.000000000000000000e+00,3.345283085251174460e-01,9.135887911276819873e-01,1.954303678161410929e-01,1.000000000000000000e+00,5.206964208519513360e-01,6.582639370390448441e-01,7.772764892444673501e-01,8.139756793791885769e-01,7.150390149182201949e-01,2.450608137309378265e-01,4.545454545454593598e-01,4.975773832147580289e-01,2.048953888405650181e-01,1.980306318041914204e-01,1.000000000000000000e+00
6.751892738940119543e-01,5.286640726329442375e-01,7.222618707175887387e-01,5.488546752781208182e-01,5.267591236575783764e-01,0.000000000000000000e+00,9.019152038062645815e-03,3.776461711911516250e-01,3.482078301772532636e-01,5.654274683391717904e-01,4.838262874887850340e-01,3.371682204970655738e-01,1.935956518517533420e-01,7.350512181290217439e-01,7.695472653468948820e-01,6.773314909130145889e-01,2.583194418719516050e-01,4.545454545454593598e-01,5.456172431854920957e-01,4.913338568084225644e-01,3.232407369958354426e-01,1.000000000000000000e+00
5.022059692881530868e-01,3.501945525291828565e-01,4.027270320173585438e-01,4.024327445827711180e-01,3.946767165169054459e-01,6.259987238953411692e-01,3.425105407073462671e-01,7.627779761516527701e-01,8.874245095486145152e-01,5.954297260980705442e-01,4.615349301190014852e-01,6.577951162732504908e-01,1.978342584557196693e-01,4.392446408480664699e-01,4.481554576551750602e-01,4.731675900268245694e-01,5.288633697598320582e-01,2.727272727272786468e-01,4.180429055982192721e-01,2.754553728238042787e-01,2.792418260116635298e-01,1.000000000000000000e+00
4.333727006974739671e-01,2.889753566796368078e-01,2.734659545600728880e-01,3.883418899917031597e-01,2.684279916696660218e-01,4.650587179285298189e-01,1.708380407110291488e-01,5.888999597697456290e-01,5.394386524033741859e-01,6.141556346854806225e-01,1.743338055856392677e-01,5.295843491246687851e-01,2.233477616234808005e-01,2.004361099319086625e-01,1.999750205610236753e-01,6.062904654297818219e-01,1.948045934432302284e-01,2.727272727272786468e-01,2.784078490311815424e-01,4.188779348509253930e-01,6.155174450262796970e-01,1.000000000000000000e+00
8.160203325365286142e-01,7.198443579766536926e-01,6.352944825322838218e-01,7.975622240426443188e-01,1.553173015207607310e-01,7.796735152462495044e-01,4.222280157826053815e-01,5.629103199534597479e-01,3.716268286987127190e-01,6.471569866372319790e-01,4.024046519015627155e-01,6.799071105707936713e-01,3.183418719617081005e-01,8.559883150849000311e-01,8.885635988050564205e-01,5.117619161868502964e-01,1.173982836327714940e-01,3.636363636363686425e-01,1.055971083505026914e-01,3.477097181248878788e-01,3.275715079269612695e-01,1.000000000000000000e+00
5.365598034044175568e-01,3.665369649805447216e-01,3.542178668724018098e-01,4.450936522055283784e-01,2.819353480848701410e-01,9.339851171063280333e-01,5.179177296977119926e-01,3.714239900955177420e-01,3.685414804490588780e-01,4.566555751092151727e-01,4.990118606662218848e-01,8.851833210431923060e-01,3.546945508834474237e-01,4.659316782401247692e-01,4.751807161205526819e-01,1.388743369672319761e-01,9.400351917021670944e-01,3.636363636363686425e-01,6.106054409118422122e-02,8.332620141340385533e-02,3.579023810958636420e-01,0.000000000000000000e+00
3.184650455509182576e-01,1.984435797665369539e-01,1.137138474493401691e-01,3.318224075151445240e-01,1.594644644156764102e-01,6.338465238348512942e-01,1.311779995272728261e-01,3.991192322479480414e-01,9.992708846276987522e-02,5.508706744531354227e-01,2.166345326704348095e-01,6.258516980002515329e-01,1.757717668630306707e-01,2.559477767573407614e-01,2.485541802998320615e-01,3.479748231816349735e-01,3.066154226091251656e-01,2.727272727272786468e-01,1.539490296517025125e-01,1.701878400717901640e-01,6.004389232020414247e-02,0.000000000000000000e+00
0.000000000000000000e+00,0.000000000000000000e+00,0.000000000000000000e+00,0.000000000000000000e+00,5.838034850862522385e-01,1.415619821706119441e-01,9.908553486725966142e-01,0.000000000000000000e+00,0.000000000000000000e+00,1.198308802222554925e-01,4.783172953172390440e-01,1.652862316282739941e-01,5.468175909998326256e-01,0.000000000000000000e+00,0.000000000000000000e+00,5.169160408742851098e-01,1.590109279496202954e-01,0.000000000000000000e+00,3.216229062396841476e-01,2.194771768362341335e-01,1.000000000000000000e+00,0.000000000000000000e+00
2.388629555532508220e-01,1.302204928664072725e-01,2.106510100894608828e-01,1.205790810449788170e-01,6.405262581964370483e-01,7.583447428439071825e-01,4.733558648450754136e-01,2.504293530877910179e-01,3.466876283680082604e-01,3.256497656562626353e-01,6.371386174258519830e-01,7.813178978581007961e-01,3.385359678344370127e-01,1.318611987567520349e-01,1.411281553257762444e-01,0.000000000000000000e+00,9.254337222942520258e-01,2.727272727272786468e-01,1.753198559530740608e-01,1.464439118691507058e-01,6.481205342218111509e-01,0.000000000000000000e+00
1.000000000000000000e+00,1.000000000000000000e+00,9.480772486105447650e-01,9.523678377023732100e-01,2.647520737967072324e-01,7.080270482929348352e-01,3.747610559458797175e-01,7.360644826209016278e-01,8.583375446470141723e-01,6.939764179640505182e-01,2.732071964292237531e-01,6.337708706817992699e-01,2.694039673118402423e-01,1.000000000000000000e+00,9.939568379727828917e-01,3.914012148665221291e-01,6.855127492745569651e-01,5.454545454545493000e-01,4.711372421826456880e-01,8.641972199742281591e-01,1.264491418703511116e-01,0.000000000000000000e+00
4.281924799848288998e-01,2.757457846952010572e-01,2.505344928313849584e-01,3.929610743899527026e-01,2.361583072716807175e-01,7.765927582569062126e-01,8.861631088679681190e-01,4.520188566190307955e-01,3.509534506585045288e-01,5.213407652027436390e-01,2.126684338621986359e-01,8.186274348578232996e-01,5.734509767091271470e-01,3.123531763473795797e-01,2.984813920475443139e-01,3.139314668306452671e-01,5.277211829351113881e-01,5.454545454545493000e-01,1.476024250858123110e-01,2.556249757756187124e-01,5.345155065015672058e-01,0.000000000000000000e+00
4.922471049910977503e-01,3.312581063553826088e-01,1.850513220408898374e-01,5.329576262090308658e-01,0.000000000000000000e+00,1.000000000000000000e+00,9.628578152351968678e-01,5.042130536721277645e-01,1.143305560723992115e-01,6.815998592515950527e-01,1.156134836515091899e-02,6.609591619130931184e-01,9.781188272871741418e-01,3.727639609734985093e-01,3.771581170752417167e-01,2.972690575083265507e-01,6.292214607643390467e-01,1.818181818181806852e-01,4.992941565946105165e-01,3.213071843832833452e-02,2.852770315261612399e-01,0.000000000000000000e+00
6.154176623425074988e-01,4.539559014267185444e-01,4.603860655985443362e-01,5.111770333465451843e-01,3.088998132193042090e-01,7.992458533223006922e-01,5.753541890962579064e-01,6.161842214051668210e-01,5.469992293590628663e-01,6.774950700761346312e-01,4.122523551865172053e-01,8.288941546002037697e-01,3.843197836275931145e-01,4.623477678215603404e-01,4.829101974972451194e-01,3.946740685183072750e-01,4.454065567697721995e-01,3.636363636363686425e-01,4.377593432761300862e-01,4.630951532084217059e-01,6.486110173006479074e-02,0.000000000000000000e+00
5.325665646733396263e-01,3.683527885862516449e-01,3.198486247750072509e-01,4.845056075020007791e-01,1.949796744725765252e-01,4.279938948038155000e-01,7.389066347859650774e-01,5.965383741830641018e-01,1.622868331942687870e-01,8.120513015876117402e-01,1.567529465886302042e-01,5.832058984338972518e-01,5.304599891434127468e-01,3.598428866202501575e-01,3.659004650191022834e-01,4.823719918913085825e-01,5.128418842995616789e-01,2.727272727272786468e-01,8.299290011123526822e-01,1.238868657274384277e-01,4.040456371390674928e-01,0.000000000000000000e+00
4.638949543989458468e-01,3.133592736705577142e-01,5.134788576856504916e-01,2.812044531374834344e-01,7.257140069328302800e-01,2.683045003880002444e-01,3.415221640898284949e-01,2.841089992145808818e-01,8.744171546465125955e-01,1.840369279244852829e-01,9.136926650816402651e-01,4.745887772077370670e-01,2.951177609724536244e-01,4.795381218306808968e-01,5.090227108678569978e-01,3.475512655444266685e-01,9.953077730443908866e-01,5.454545454545493000e-01,3.760401702508754385e-01,0.000000000000000000e+00,2.505836580092047350e-01,0.000000000000000000e+00
3.232693136797494815e-01,1.805447470817120592e-01,4.158443736266221324e-01,9.567137828667264532e-02,9.952083569769941684e-01,6.746078159925879003e-01,7.056073916704100890e-01,1.542636455208567792e-01,7.065182574973059015e-01,0.000000000000000000e+00,8.276131422465078380e-01,6.099591032062382512e-01,1.000000000000000000e+00,3.974358841696638001e-01,4.081191606358742785e-01,6.747169397541000757e-01,1.324010619250478582e-01,1.818181818181806852e-01,1.506552214092475583e-01,3.676024368449416491e-01,4.603523257662222035e-01,0.000000000000000000e+00
9.612396213636764664e-01,9.099870298313877948e-01,7.171592525578641686e-01,1.000000000000000000e+00,4.236283464266143300e-02,9.856377345853631899e-01,9.354715493605112453e-01,6.960698437443788578e-01,6.774696422124011352e-01,7.842402231211599295e-01,1.873511116551324629e-01,6.024215802288537258e-01,6.768277959670874200e-01,8.166465351522925742e-01,8.322447118651626896e-01,3.370711266406397622e-01,7.954405136753719407e-01,1.000000000000000000e+00,1.000000000000000000e+00,1.000000000000000000e+00,4.832189325277710251e-02,0.000000000000000000e+00
7.775307921899531349e-01,6.687418936446173356e-01,5.021320225739756005e-01,8.400264961832584198e-01,2.799455471189986507e-03,9.478003255195606158e-01,3.897284706296785251e-01,1.000000000000000000e+00,7.015431237890051852e-01,1.000000000000000000e+00,2.947325861003565750e-01,8.683863969792557924e-01,2.874670227011216772e-01,6.689552803552184512e-01,6.817672594866680535e-01,2.410101094491286788e-01,7.179261591652774666e-01,5.454545454545493000e-01,2.137484412707148507e-01,6.891457537876518602e-01,1.686681459971393904e-02,0.000000000000000000e+00
