Area_Normalized, Area, Major_axis, Minor_axis, Ratio_axis, Convex_Hull, angle, Relation_Neighbour_Area, Relation_Neighbour_Major_Axis, Relation_Neighbour_Minor_Axis, Relation_Neighbour_Ratio_Axis, Relation_Neighbour_Convex_Hull, Relation_Neighbour_Angle, Strength, Clustering_Coefficient, Eccentricity, Betweenness, Average_NoN, Centroid_Descriptor, Area_Descriptor, Ratio_Descriptor,Class
6.290375600190410976e-01,4.705577172503242478e-01,6.922086770474231709e-01,3.087247506093866445e-01,1.000000000000000000e+00,5.340995318006581671e-01,6.317957722642896234e-01,2.477144601375475264e-01,1.000000000000000000e+00,7.817511163539922481e-02,1.000000000000000000e+00,5.246293590354078606e-01,3.927401852461810394e-01,4.603915119424964453e-01,4.444011161334199267e-01,6.048091056873875493e-01,3.897375956986733891e-01,6.363636363636393511e-01,1.315111825011500979e-01,8.190656963060345408e-01,1.000000000000000000e+00,1.000000000000000000e+00
7.484840035586546314e-01,6.140077821011673542e-01,4.588343150553756966e-01,7.062904823796392062e-01,1.645299382843571356e-01,5.524212221886667384e-01,3.066861101734627559e-01,4.261160644409222598e-01,4.087578187682595066e-01,5.209493588103754069e-01,3.583396962439748812e-01,6.551123049378152485e-01,2.173228138062191783e-01,5.774344870929495332e-01,5.215874880209573350e-01,5.577859051767466991e-02,8.123780024545613765e-01,4.545454545454593598e-01,4.873616825254910023e-01,4.988014611273814403e-01,2.538708270422408986e-01,1.000000000000000000e+00
9.653984490643936489e-01,9.392996108949416278e-01,1.000000000000000000e+00,6.817095909094834649e-01,7.570683883468698472e-01,1.000000000000000000e+00,0.000000000000000000e+00,5.949799298456251995e-01,8.347947881371572398e-01,4.553738315928537728e-01,6.205983236388185054e-01,1.000000000000000000e+00,0.000000000000000000e+00,1.000000000000000000e+00,8.890085629600003037e-01,0.000000000000000000e+00,1.000000000000000000e+00,8.181818181818193425e-01,4.343827267275083837e-01,9.464924030732339011e-01,3.196856770958928506e-01,1.000000000000000000e+00
9.162225608008510713e-01,8.762645914396887115e-01,7.338302530140368152e-01,8.313144708571478247e-01,3.151085798594199794e-01,5.636417455948170563e-01,2.927755585521134574e-01,6.936753168878541098e-01,7.681542528861885488e-01,5.744027358708559960e-01,4.602451581602079456e-01,7.748920545432325113e-01,2.016948053708828847e-01,8.815247292333110440e-01,7.611908211658136025e-01,3.823197090485525029e-01,4.044532756706212262e-01,5.454545454545493000e-01,2.464417795705411973e-01,7.522082448728911741e-01,0.000000000000000000e+00,1.000000000000000000e+00
4.837923821467757235e-01,3.252918287937743291e-01,4.413931038639941629e-01,2.785927160917315293e-01,7.083323505066310144e-01,4.472969745955529541e-01,2.847859329461965849e-01,2.222294621732243403e-01,3.517552778796307900e-01,1.949742464990470159e-01,6.000404824868529330e-01,6.550589194635858536e-01,1.391900591773050921e-01,4.683984840488849000e-01,4.283553657918392488e-01,4.986020615872721051e-01,4.200806498743498429e-01,5.454545454545493000e-01,3.634018183012568959e-01,1.095995481482646416e-01,7.484485597395907908e-01,1.000000000000000000e+00
6.596111330464432543e-01,4.907911802853436867e-01,6.939975796868591562e-01,3.317707263830155795e-01,9.575412190288714598e-01,4.253762820926112465e-01,5.456254020725782583e-01,5.389667695613238330e-01,8.171177381369856274e-01,3.081252723166893470e-01,6.925703333959056796e-01,4.975921328987128467e-01,3.132445210537191937e-01,6.531175125592639796e-01,5.225722816494532408e-01,3.120340200555464794e-01,5.409385775232307125e-01,6.363636363636393511e-01,3.905736080394694443e-01,6.559013259303030363e-01,3.162781898176675321e-02,1.000000000000000000e+00
6.133170350821667283e-01,4.811932555123216715e-01,4.367074967012333775e-01,5.342035790099579629e-01,3.270021879656577202e-01,6.016773839409650382e-01,1.974554109455731732e-01,6.032784408229106138e-02,1.719046684977193207e-01,2.342818054077037415e-01,4.324063171896656566e-01,6.804788722099442966e-01,1.398833955385698768e-01,6.569816914736051894e-01,8.624409577867028220e-01,6.107280296725335900e-01,1.485594062299105955e-01,6.363636363636393511e-01,8.457727379928683398e-01,2.832465157519474808e-01,3.720603773066609443e-02,1.000000000000000000e+00
3.695280633443037144e-01,2.166018158236057145e-01,1.646272730428636755e-01,3.212011771292632156e-01,2.588343399331177741e-01,3.176731721582244372e-01,4.180732241078766176e-01,4.368226390139109960e-01,1.682028671837479117e-01,5.188763689583487659e-01,1.167273839342959640e-01,7.124065236280263669e-01,2.210302782550705447e-01,2.274975105392748054e-01,1.949782276587091745e-01,3.862228476545767064e-01,5.497633101513645926e-01,6.363636363636393511e-01,7.338822476596484901e-02,2.463076644435717999e-01,6.120374025858387190e-01,1.000000000000000000e+00
3.016398515221240251e-01,1.813229571984435740e-01,1.433720696421466878e-01,3.066976902789720905e-01,2.495702354855183214e-01,7.112828819596493657e-02,2.120768177910621333e-01,3.030183179081265554e-01,4.425452019835963702e-01,3.723463806997134862e-01,3.310690600596505329e-01,0.000000000000000000e+00,1.344611693239869399e-01,1.838413096894212229e-01,1.715406843249330515e-01,9.164818953666918899e-01,3.903921454035415989e-02,5.454545454545493000e-01,3.552691230909820752e-01,1.986851309415373357e-01,2.907359377567604874e-01,1.000000000000000000e+00
7.769800857742771294e-01,6.516212710765240113e-01,5.756418913260799020e-01,6.471420954085149724e-01,3.498407134858654843e-01,4.635216599249297742e-01,1.878089152383641963e-02,9.154850869968267357e-01,6.187713840642879992e-01,6.545040770596149970e-01,2.834863918427256713e-01,7.006594827602770081e-01,7.689410918711973852e-02,6.399420338974907141e-01,5.539605259042382768e-01,9.661195440450009997e-01,3.235696335690491643e-01,6.363636363636393511e-01,3.868510188605761568e-01,6.726591887958136562e-01,5.272429241296518708e-03,1.000000000000000000e+00
5.828571587297819434e-01,4.417639429312580912e-01,3.804789470394817630e-01,5.146867954987678351e-01,2.848825457116267446e-01,6.631379163979266300e-01,8.525638434792722764e-01,4.001830183562255505e-01,3.104103366818332654e-01,5.171306835669634561e-01,3.219384337003654561e-01,9.264335712593392280e-01,6.722480312819792969e-01,4.905702078830719848e-01,4.394736511802796453e-01,6.410629223110162478e-01,4.081234293729180118e-01,3.636363636363686425e-01,0.000000000000000000e+00,2.217211863792317716e-02,4.685648453562527016e-01,1.000000000000000000e+00
8.563928995700453850e-01,7.597924773022048939e-01,5.716562585641845606e-01,8.578842799101152883e-01,1.358729364497060499e-01,7.016813686438113651e-01,2.818125469956021534e-01,4.652522406142840516e-01,4.140233402083710601e-01,5.304917279171331712e-01,8.149257346622780507e-02,5.372264413767728897e-01,1.394624707827815113e-01,8.456373528268101847e-01,1.000000000000000000e+00,9.727367390977756934e-01,1.415931272280988862e-01,7.272727272727292913e-01,1.318837754896002579e-01,4.088344596264985031e-01,2.610766208654211051e-01,1.000000000000000000e+00
4.635870297488324798e-01,3.068741893644617580e-01,1.795756628142778921e-01,4.703530387719659922e-01,9.613718020851601265e-02,3.654862476007593175e-01,9.913335675957251070e-01,6.452429485131663256e-01,3.198095955130532131e-01,7.819593186368558602e-01,2.805854091339973766e-01,6.211244901075272384e-01,5.071207531421396686e-01,2.948939703697023296e-01,2.613656442589882278e-01,7.360790383005312298e-01,1.600374028402781756e-01,4.545454545454593598e-01,3.806505324807785140e-01,2.738781542290491533e-01,6.381974645453392103e-02,1.000000000000000000e+00
5.365598034044175568e-01,3.665369649805447216e-01,2.931250924637898714e-01,4.450936522055283784e-01,2.643850553682914883e-01,6.264242424244249596e-01,5.198362094655091248e-01,3.714239900955177420e-01,2.831078688272562482e-01,4.566555751092151727e-01,4.441307282139176915e-01,9.546374510223831766e-01,2.925260222456916304e-01,4.127661190045410211e-01,3.611065615748560997e-01,2.062386535750206917e-01,6.115948804862368915e-01,3.636363636363686425e-01,1.447808489022559542e-01,8.332620141340385533e-02,3.392502849588087677e-01,0.000000000000000000e+00
3.184650455509182576e-01,1.984435797665369539e-01,9.410135728700634583e-02,3.318224075151445240e-01,1.495379048430715285e-01,3.891594748736015852e-01,1.271873540172266392e-01,3.991192322479480414e-01,7.676244480902563727e-02,5.508706744531354227e-01,1.868483064110476877e-01,6.856917201569791009e-01,9.636587220341873150e-02,2.267426221780131923e-01,1.888850754422420342e-01,5.159861104073760751e-01,1.319268306937058099e-01,2.727272727272786468e-01,2.293869555770789437e-01,1.701878400717901640e-01,5.096549230204259345e-02,0.000000000000000000e+00
0.000000000000000000e+00,0.000000000000000000e+00,0.000000000000000000e+00,0.000000000000000000e+00,5.474620964600265260e-01,0.000000000000000000e+00,1.000000000000000000e+00,0.000000000000000000e+00,0.000000000000000000e+00,1.198308802222554925e-01,4.252752913099198118e-01,2.080518761944598616e-01,5.031581369992117470e-01,0.000000000000000000e+00,0.000000000000000000e+00,7.662443163151498871e-01,2.015078019987142852e-02,0.000000000000000000e+00,3.821102323490026542e-01,2.194771768362341335e-01,9.607097561730089108e-01,0.000000000000000000e+00
2.388629555532508220e-01,1.302204928664072725e-01,1.743195433795179383e-01,1.205790810449788170e-01,6.006539137019881736e-01,4.875774779424603134e-01,4.745934690226855102e-01,2.504293530877910179e-01,2.663200774481321309e-01,3.256497656562626353e-01,5.699821439317680483e-01,8.469214624268329716e-01,2.748107262719674537e-01,1.168150563698327482e-01,1.072482556261062786e-01,5.195111968778577194e-04,6.005376658289989233e-01,2.727272727272786468e-01,2.488522574266278098e-01,1.464439118691507058e-01,6.201403158021411288e-01,0.000000000000000000e+00
1.000000000000000000e+00,1.000000000000000000e+00,7.845601737020506672e-01,9.523678377023732100e-01,2.482714287693418287e-01,4.478004670249364771e-01,3.744921971664163518e-01,7.360644826209016278e-01,6.593616346885671220e-01,6.939764179640505182e-01,2.383933509194291478e-01,6.939044774740286137e-01,1.990185700662623070e-01,8.858940876559500133e-01,7.553428073522860942e-01,5.803150587868036725e-01,4.188533691777219237e-01,5.454545454545493000e-01,5.182931594348788584e-01,8.641972199742281591e-01,1.152363602453211483e-01,0.000000000000000000e+00
4.281924799848288998e-01,2.757457846952010572e-01,2.073242296471245194e-01,3.929610743899527026e-01,2.214576056809668403e-01,5.020028508611402707e-01,8.937081325585861658e-01,4.520188566190307955e-01,2.695970161959405642e-01,5.213407652027436390e-01,1.832346752681547342e-01,8.856141624489152209e-01,5.323573749021542900e-01,2.767118321866999242e-01,2.268265220363462342e-01,4.655565621903315909e-01,2.993629828765121959e-01,5.454545454545493000e-01,2.236062444406616279e-01,2.556249757756187124e-01,5.101867536400643832e-01,0.000000000000000000e+00
4.922471049910977503e-01,3.312581063553826088e-01,1.531350927120854466e-01,5.329576262090308658e-01,0.000000000000000000e+00,6.786101531863063530e-01,9.715746829147210439e-01,5.042130536721277645e-01,8.782696599593776965e-02,6.815998592515950527e-01,0.000000000000000000e+00,7.221007104300495305e-01,9.760108018330463375e-01,3.302293891176356078e-01,2.866157363013343562e-01,4.408739849006932943e-01,3.762258196481795269e-01,1.818181818181806852e-01,5.439394695237701471e-01,3.213071843832833452e-02,2.689592419592051753e-01,0.000000000000000000e+00
6.154176623425074988e-01,4.539559014267185444e-01,3.809822165075212874e-01,5.111770333465451843e-01,2.896710000218072345e-01,5.199105157049480619e-01,5.781502596767501556e-01,6.161842214051668210e-01,4.201963531630222848e-01,6.774950700761346312e-01,3.650815501419060749e-01,8.962614965931493538e-01,3.250053408072994809e-01,4.095911539540462165e-01,3.669804666976940188e-01,5.851632450037665967e-01,2.370288118754017848e-01,3.636363636363686425e-01,4.878913926451053373e-01,4.630951532084217059e-01,5.562786812223236010e-02,0.000000000000000000e+00
5.325665646733396263e-01,3.683527885862516449e-01,2.646835930084892596e-01,4.845056075020007791e-01,1.828423160887429622e-01,2.264293985964826450e-01,7.442016777131883476e-01,5.965383741830641018e-01,1.246662368327477732e-01,8.120513015876117402e-01,1.322884038938258733e-01,6.414649282288171772e-01,4.852246488073393427e-01,3.187826857419299720e-01,2.780606500205028975e-01,7.150730755644324477e-01,2.880953772427093940e-01,2.727272727272786468e-01,8.450933397465362207e-01,1.238868657274384277e-01,3.839104155315591904e-01,0.000000000000000000e+00
4.638949543989458468e-01,3.133592736705577142e-01,4.249179719992110527e-01,2.812044531374834344e-01,6.805387802834982347e-01,1.001921605478265920e-01,3.407454371997172826e-01,2.841089992145808818e-01,6.717137425516620519e-01,1.840369279244852829e-01,8.219588010001042111e-01,5.288210836027847916e-01,2.272096227051838557e-01,4.248199869354388758e-01,3.868242852649164676e-01,5.153586804892423823e-01,6.534509964350417865e-01,5.454545454545493000e-01,4.316753944474120974e-01,0.000000000000000000e+00,2.353809745342585746e-01,0.000000000000000000e+00
3.232693136797494815e-01,1.805447470817120592e-01,3.441227331250341082e-01,9.567137828667264532e-02,9.332572816770152713e-01,4.213819838267535145e-01,7.103936443599702111e-01,1.542636455208567792e-01,5.427364049330032358e-01,0.000000000000000000e+00,7.435291754354457217e-01,6.692099449223566365e-01,1.000000000000000000e+00,3.520861000082201597e-01,3.101441237203914625e-01,1.000000000000000000e+00,0.000000000000000000e+00,1.818181818181806852e-01,2.263868389334935394e-01,3.676024368449416491e-01,4.384073080753679852e-01,0.000000000000000000e+00
9.612396213636764664e-01,9.099870298313877948e-01,5.934691382832248951e-01,1.000000000000000000e+00,3.972577563841440951e-02,6.672565330871250699e-01,9.437699731530455605e-01,6.960698437443788578e-01,5.204217076683380627e-01,7.842402231211599295e-01,1.601673064491723752e-01,6.613929860714423681e-01,6.456934851552813548e-01,7.234623371961329541e-01,6.324520673819640226e-01,4.998341045713782238e-01,5.020980655718543240e-01,1.000000000000000000e+00,1.000000000000000000e+00,1.000000000000000000e+00,3.962025891767123609e-02,0.000000000000000000e+00
7.775307921899531349e-01,6.687418936446173356e-01,4.155281517717655526e-01,8.400264961832584198e-01,2.625191182231008738e-03,6.373454044686108766e-01,3.896883039693646578e-01,1.000000000000000000e+00,5.389145841176870011e-01,1.000000000000000000e+00,2.580057766908145922e-01,9.372178206446483140e-01,2.188218146601928482e-01,5.926235277729166029e-01,5.180989516525017491e-01,3.575357469038090708e-01,4.433989831102799206e-01,5.454545454545493000e-01,2.838543674204287992e-01,6.891457537876518602e-01,9.176201859655277668e-03,0.000000000000000000e+00
