Area_Normalized, Area, Major_axis, Minor_axis, Ratio_axis, Convex_Hull, angle, Relation_Neighbour_Area, Relation_Neighbour_Major_Axis, Relation_Neighbour_Minor_Axis, Relation_Neighbour_Ratio_Axis, Relation_Neighbour_Convex_Hull, Relation_Neighbour_Angle, Strength, Clustering_Coefficient, Eccentricity, Betweenness, Average_NoN, Centroid_Descriptor, Area_Descriptor, Ratio_Descriptor,Class
4.092608608872546627e-01,2.518806744487678273e-01,3.085175407421245075e-01,3.002880233031982038e-01,4.363536985013676262e-01,2.143042653426901756e-01,1.183133002421859620e-01,5.492923805710010488e-01,7.679663080016720933e-01,4.844784739741811452e-01,4.268702186424341294e-01,3.786310982060501207e-01,3.672946173603562348e-01,2.163526493237408199e-01,1.897660144699629681e-01,8.124618077589905729e-01,3.493117863811365242e-02,5.454545454545493000e-01,7.427920660945443176e-02,5.451877674750968961e-01,2.747453670612722831e-01,1.000000000000000000e+00
6.596611493628610212e-01,5.193255512321660605e-01,5.178448228502776640e-01,5.838540290037167457e-01,2.700627829718135198e-01,9.695681860533429397e-01,1.119073184720745795e-01,7.008676728235928577e-01,6.818127797335100659e-01,5.441311772075012598e-01,1.228224549375951380e-01,3.070698577298358600e-01,3.840678317839537059e-01,5.742298281603603893e-01,4.592168019189618589e-01,1.449287668312196353e-01,6.248285662353971759e-01,4.545454545454593598e-01,2.983297841312239629e-01,3.558154437656862457e-01,2.618076080145453899e-01,1.000000000000000000e+00
5.296412140882151842e-01,3.559014267185473535e-01,3.922312972888419291e-01,4.894052193696377118e-01,2.597176923280193339e-01,3.879060861461177678e-01,9.516743666567520910e-01,4.454243137274583875e-01,8.204239236822893355e-01,4.358946941143358456e-01,3.318133820296913505e-01,1.383983347715959378e-01,6.279679849200442421e-01,5.026984717844635853e-01,4.578793842282113946e-01,5.341343058403863475e-01,5.527685520249838724e-01,4.545454545454593598e-01,2.278604378438551237e-01,3.298779912138707360e-01,1.717152979997272066e-01,1.000000000000000000e+00
8.398799834748628124e-01,7.574578469520103496e-01,7.221537545112483025e-01,7.907890264820506276e-01,2.279582350272751912e-01,8.163425415520619843e-01,3.530239099860618124e-01,5.128601325054897853e-01,6.907762521510085740e-01,5.342113069497461675e-01,3.518348638405218720e-01,7.925332948058905203e-01,4.324173499617213756e-01,8.764827862409393378e-01,1.000000000000000000e+00,3.024907988160500660e-01,8.573505841140798278e-01,7.272727272727292913e-01,9.306524188182500046e-01,8.558109087985898977e-01,1.382561807294226397e-01,1.000000000000000000e+00
8.467961415233082878e-01,7.608300907911802469e-01,8.755978433072005851e-01,7.324788613651280755e-01,4.259491447347825144e-01,9.157006219405554592e-01,5.553341665160614893e-01,6.771324574149624187e-01,8.450543629473145080e-01,6.154464937984235329e-01,4.898992913031761098e-01,6.861269116724222350e-01,5.289104520483484118e-01,9.979886026544599886e-01,8.416688506896394806e-01,8.733889867826166720e-01,7.552999884333845559e-02,4.545454545454593598e-01,2.230059758896360267e-01,7.749061659656696355e-01,5.915163501037247473e-03,1.000000000000000000e+00
8.444684106661071166e-01,7.613488975356679234e-01,1.000000000000000000e+00,6.521212915549060574e-01,6.418691866602236340e-01,7.770889392676711971e-01,5.110829625295979506e-01,3.692714098649942378e-01,9.466239305930551629e-01,3.261765493194090371e-01,7.487281959135623222e-01,7.247456418724040894e-01,0.000000000000000000e+00,9.679518994850617730e-01,5.608940197266174543e-01,7.937873210483544772e-01,0.000000000000000000e+00,7.272727272727292913e-01,3.476366660850148671e-01,6.638224788167703672e-01,3.326911512697224849e-01,1.000000000000000000e+00
5.588054051354717222e-01,4.005188067444876987e-01,4.153437086209174067e-01,5.003248407364387917e-01,2.698634608690190784e-01,5.759421432446476530e-01,5.115835752411275195e-01,5.840446524063601652e-01,6.149242017415811334e-01,6.128957380539613586e-01,1.129030262756625103e-01,8.136352611726556106e-01,5.159930903987095530e-01,5.084946734049975436e-01,4.396484422751633647e-01,1.082035080886536993e-01,5.458285827591334849e-01,3.636363636363686425e-01,0.000000000000000000e+00,3.958067718924565548e-01,0.000000000000000000e+00,1.000000000000000000e+00
8.598612425331828568e-01,7.722438391699092408e-01,8.491832421605156611e-01,7.420638104016374914e-01,3.913902228287898799e-01,8.292913653202164115e-01,4.198284025675787928e-02,5.749847639349471295e-01,6.941246196816062142e-01,6.779807355598843621e-01,4.518112639386685503e-01,5.913913208961056878e-01,3.969307213415588231e-01,9.718693740968918915e-01,8.348197826028070923e-01,4.043985164032641855e-01,5.658883986847106362e-01,5.454545454545493000e-01,5.962327654330499271e-01,6.571949017507303648e-01,7.569535613090254689e-01,1.000000000000000000e+00
7.031194547939341177e-01,5.623865110246433208e-01,7.242631398331885739e-01,5.111721688589000445e-01,5.731043645771984885e-01,7.114625405069273656e-01,8.277558365922750294e-01,2.860864483460207053e-01,9.421863871397472279e-01,2.501936670073617308e-01,1.000000000000000000e+00,5.285813939255495919e-01,6.361759920698409898e-01,6.752878829274922001e-01,6.100356088257924414e-01,3.648865208050744435e-01,1.000000000000000000e+00,6.363636363636393511e-01,3.006580789939740095e-01,5.140784008360036461e-01,2.779311579709758395e-01,1.000000000000000000e+00
2.872358332231470524e-01,1.546044098573281511e-01,1.384326665854103966e-01,2.187558411229150734e-01,3.576505543615442484e-01,7.288861607077946614e-01,4.988260739725761117e-01,1.557044114324670214e-01,1.642427769116815706e-01,3.425298272951476930e-01,6.113386105389359004e-01,1.000000000000000000e+00,5.006766749250111115e-01,1.681668666973675785e-01,1.565929455397251369e-01,3.480999094397851934e-01,7.409243378112658762e-01,1.818181818181806852e-01,2.281719154201173327e-01,2.048530639741342196e-01,4.665554824875099427e-01,1.000000000000000000e+00
5.889502371450346940e-01,4.140077821011672876e-01,3.630992122880993267e-01,5.730615636259310808e-01,1.309704691409690203e-01,4.910185146226880293e-01,3.524606623818746787e-01,2.703009196245989010e-01,4.039583302023231903e-01,5.244383259197181735e-01,1.942987782285514331e-01,5.406450615150638628e-01,4.620275497297620659e-01,4.005045761805280935e-01,3.620417613667221701e-01,3.474459988046602610e-01,7.753598043589616795e-01,3.636363636363686425e-01,6.652618199426341139e-01,3.769024010089827015e-01,4.086998437709142840e-01,1.000000000000000000e+00
7.561987339119800033e-01,6.503242542153048200e-01,6.918669544330082743e-01,6.591111599810954846e-01,3.460772339756438831e-01,7.000196512174114982e-01,8.274507977591157026e-02,8.202689104221789762e-01,1.000000000000000000e+00,6.867790171300139912e-01,2.560914350695461250e-01,1.264484899755537184e-01,3.190800933062378775e-01,7.228407438213318992e-01,6.021279366721535853e-01,3.527888301533853022e-01,9.334093425205307604e-01,7.272727272727292913e-01,5.387322355366135351e-01,8.472253516109118365e-01,3.669843433468819582e-02,1.000000000000000000e+00
9.141627471560033469e-02,4.202334630350194888e-02,9.230317247715648377e-02,7.282269507394717456e-02,5.676727712498830236e-01,0.000000000000000000e+00,8.117289130695182209e-01,7.346056362641835077e-03,1.854360442849311286e-01,1.528285815323246755e-01,6.536127395376064575e-01,2.483246159862695923e-01,7.811729682329640045e-01,1.169891123972008895e-01,1.204143716121980345e-01,8.581393040672926631e-01,5.390042796477139547e-02,2.727272727272786468e-01,4.637266680419192127e-02,7.744087782134040365e-02,6.809866529730895790e-01,1.000000000000000000e+00
5.365598034044175568e-01,3.665369649805447216e-01,3.601848692845356914e-01,4.450936522055283784e-01,2.832927859863093589e-01,9.247080890587788815e-01,4.498661393776736683e-01,3.714239900955177420e-01,4.151238487875473226e-01,4.566555751092151727e-01,4.741129648293396226e-01,9.944026133135772660e-01,4.873332865649966372e-01,4.659316782401247692e-01,3.996503835988871045e-01,2.058260713268064701e-01,9.084254531634693430e-01,3.636363636363686425e-01,6.149875472513596786e-02,8.332620141340385533e-02,3.536008008231872890e-01,0.000000000000000000e+00
3.184650455509182576e-01,1.984435797665369539e-01,1.156294222000278926e-01,3.318224075151445240e-01,1.602322401110652106e-01,5.823912168010894064e-01,0.000000000000000000e+00,3.991192322479480414e-01,1.125575267952301922e-01,5.508706744531354227e-01,1.994620027354069569e-01,6.361846854173294208e-01,3.451870273509040077e-01,2.559477767573407614e-01,2.090463062409581019e-01,5.157345290729681286e-01,2.303243609444967643e-01,2.727272727272786468e-01,1.543438884785828524e-01,1.701878400717901640e-01,5.374687994866197277e-02,0.000000000000000000e+00
0.000000000000000000e+00,0.000000000000000000e+00,0.000000000000000000e+00,0.000000000000000000e+00,5.866143315552441173e-01,2.092625247746458805e-02,1.000000000000000000e+00,0.000000000000000000e+00,0.000000000000000000e+00,1.198308802222554925e-01,4.539846410593140758e-01,0.000000000000000000e+00,6.399665669540774982e-01,0.000000000000000000e+00,0.000000000000000000e+00,7.661228144985876565e-01,7.230787025562220027e-02,0.000000000000000000e+00,3.219395103129759073e-01,2.194771768362341335e-01,1.000000000000000000e+00,0.000000000000000000e+00
2.388629555532508220e-01,1.302204928664072725e-01,2.141995467469159364e-01,1.205790810449788170e-01,6.436102085618276014e-01,7.243850885931277794e-01,3.980305700248935041e-01,2.504293530877910179e-01,3.905077453962400580e-01,3.256497656562626353e-01,6.084603180825477464e-01,8.509320398568659405e-01,4.744960051243335419e-01,1.318611987567520349e-01,1.186957288019253598e-01,0.000000000000000000e+00,8.927939985789586919e-01,2.727272727272786468e-01,1.757047408425693458e-01,1.464439118691507058e-01,6.457632014365958240e-01,0.000000000000000000e+00
1.000000000000000000e+00,1.000000000000000000e+00,9.640481517140470080e-01,9.523678377023732100e-01,2.660267791569875251e-01,6.669962815418236657e-01,2.833424152221447057e-01,7.360644826209016278e-01,9.668284412885053136e-01,6.939764179640505182e-01,2.544867337924263673e-01,6.471235350468129699e-01,4.195736802785917097e-01,1.000000000000000000e+00,8.359666503717746444e-01,5.800969144322476456e-01,6.359490407971050141e-01,5.454545454545493000e-01,4.713840667067598078e-01,8.641972199742281591e-01,1.205969956734485315e-01,0.000000000000000000e+00
4.281924799848288998e-01,2.757457846952010572e-01,2.547548895500691968e-01,3.929610743899527026e-01,2.372953418408039750e-01,7.451974856027914207e-01,8.782191482552011985e-01,4.520188566190307955e-01,3.953127528687145342e-01,5.213407652027436390e-01,1.956044237251759466e-01,9.024681575041765269e-01,6.611256170410149124e-01,3.123531763473795797e-01,2.510375500984506347e-01,4.652787685233711334e-01,4.670268841190369780e-01,5.454545454545493000e-01,1.480002459243461022e-01,2.556249757756187124e-01,5.313971038544946790e-01,0.000000000000000000e+00
4.922471049910977503e-01,3.312581063553826088e-01,1.881686173222831826e-01,5.329576262090308658e-01,0.000000000000000000e+00,1.000000000000000000e+00,9.674325100396863331e-01,5.042130536721277645e-01,1.287815428889153846e-01,6.815998592515950527e-01,0.000000000000000000e+00,6.846790527026798134e-01,9.826163735078546901e-01,3.727639609734985093e-01,3.172085504587563443e-01,4.405833616933731989e-01,5.756869743386374694e-01,1.818181818181806852e-01,4.995278400591632861e-01,3.213071843832833452e-02,2.804889149982368601e-01,0.000000000000000000e+00
6.154176623425074988e-01,4.539559014267185444e-01,4.681415319960903765e-01,5.111770333465451843e-01,3.103870772926446975e-01,7.710340052093450636e-01,5.166777861607932953e-01,6.161842214051668210e-01,6.161380398718599993e-01,6.774950700761346312e-01,3.897273598662165384e-01,9.166497024667746851e-01,5.108692271439596588e-01,4.623477678215603404e-01,4.061512580923543059e-01,5.849476206454011784e-01,3.789057981790842633e-01,3.636363636363686425e-01,4.380217455354727951e-01,4.630951532084217059e-01,5.859636110717382496e-02,0.000000000000000000e+00
5.325665646733396263e-01,3.683527885862516449e-01,3.252366576611001592e-01,4.845056075020007791e-01,1.959184457261182455e-01,3.476102532873800999e-01,7.069264252022989803e-01,5.965383741830641018e-01,1.827993275575381382e-01,8.120513015876117402e-01,1.412188875894075102e-01,5.772775233254598959e-01,6.269711738500988174e-01,3.598428866202501575e-01,3.077403106711857350e-01,7.149249758974609570e-01,4.510980022802756340e-01,2.727272727272786468e-01,8.300083746222957082e-01,1.238868657274384277e-01,4.000531826349171816e-01,0.000000000000000000e+00
4.638949543989458468e-01,3.133592736705577142e-01,5.221287025098070300e-01,2.812044531374834344e-01,7.292081118945089591e-01,1.654798133685714823e-01,2.446780350461439935e-01,2.841089992145808818e-01,9.849404583723384565e-01,1.840369279244852829e-01,8.774473355557309562e-01,4.272433715195767534e-01,4.400021550481446053e-01,4.795381218306808968e-01,4.281131678064019619e-01,5.151067730285404656e-01,9.675969530230175142e-01,5.454545454545493000e-01,3.763313773471734791e-01,0.000000000000000000e+00,2.455631214773441595e-01,0.000000000000000000e+00
3.232693136797494815e-01,1.805447470817120592e-01,4.228495097661726376e-01,9.567137828667264532e-02,1.000000000000000000e+00,6.288806665200646906e-01,6.681918428050070968e-01,1.542636455208567792e-01,7.958197213881680332e-01,0.000000000000000000e+00,7.937231076545147035e-01,6.142320507590275369e-01,1.000000000000000000e+00,3.974358841696638001e-01,3.432483128393692406e-01,1.000000000000000000e+00,4.382094879294105849e-02,1.818181818181806852e-01,1.510516174830600356e-01,3.676024368449416491e-01,4.567370845297860638e-01,0.000000000000000000e+00
9.612396213636764664e-01,9.099870298313877948e-01,7.292402100422545885e-01,1.000000000000000000e+00,4.256679955074042787e-02,9.836194148786913116e-01,9.355760630809375478e-01,6.960698437443788578e-01,7.630994616108287554e-01,7.842402231211599295e-01,1.709798302736912357e-01,6.038203785119373723e-01,7.432539397553185045e-01,8.166465351522925742e-01,6.999587884384509406e-01,4.995741277275252967e-01,7.536310910623109649e-01,1.000000000000000000e+00,1.000000000000000000e+00,1.000000000000000000e+00,4.194635213660131284e-02,0.000000000000000000e+00
7.775307921899531349e-01,6.687418936446173356e-01,5.105907234756664748e-01,8.400264961832584198e-01,2.812934046990423712e-03,9.404647396183032360e-01,3.007529177771778306e-01,1.000000000000000000e+00,7.902157479881970481e-01,1.000000000000000000e+00,2.754231489946823985e-01,9.712008176258308811e-01,4.339239809830023886e-01,6.689552803552184512e-01,5.733998403880598005e-01,3.572018060447164634e-01,6.706488871263570628e-01,5.454545454545493000e-01,2.141153912288064898e-01,6.891457537876518602e-01,1.028054766580278716e-02,0.000000000000000000e+00
