Area_Normalized, Area, Major_axis, Minor_axis, Ratio_axis, Convex_Hull, angle, Relation_Neighbour_Area, Relation_Neighbour_Major_Axis, Relation_Neighbour_Minor_Axis, Relation_Neighbour_Ratio_Axis, Relation_Neighbour_Convex_Hull, Relation_Neighbour_Angle, Strength, Clustering_Coefficient, Eccentricity, Betweenness, Average_NoN, Centroid_Descriptor, Area_Descriptor, Ratio_Descriptor,Class
9.653984490643936489e-01,9.392996108949416278e-01,1.000000000000000000e+00,6.817095909094834649e-01,6.435421068125459776e-01,1.000000000000000000e+00,0.000000000000000000e+00,5.001740679853743377e-01,1.000000000000000000e+00,4.457843556128248119e-01,5.021179102612223222e-01,1.000000000000000000e+00,4.840908785416503379e-01,1.000000000000000000e+00,1.000000000000000000e+00,6.062800423793004989e-02,1.000000000000000000e+00,8.181818181818193425e-01,3.796109018519611689e-01,7.708539967164750317e-01,1.823603017617015376e-01,1.000000000000000000e+00
5.795637983464322351e-01,4.194552529182879463e-01,6.481852634176239469e-01,2.790377453078841108e-01,8.437648144788408855e-01,3.447670145893109162e-01,1.563496489128817779e-01,1.139336767101460923e-01,6.602733578963070338e-01,1.181339382664029769e-01,6.264034969112812767e-01,4.059055347276682157e-01,5.496345268181498378e-01,5.091206474027079043e-01,4.991998585537669730e-01,4.155127924097890002e-01,5.373211907262823717e-01,4.545454545454593598e-01,7.323971715234676994e-02,3.122397916852815980e-01,1.253929683049841703e-01,1.000000000000000000e+00
9.686264270108836394e-01,9.224383916990921417e-01,7.153166596491224993e-01,9.258581398859815348e-01,1.891194438103016850e-01,7.099970458367073078e-01,7.394933802402858802e-01,4.952714906669530848e-01,6.585877203804015867e-01,6.463937556132798301e-01,3.075797832416792832e-01,7.578389437175659937e-01,8.411933056639538941e-01,8.276106315361818622e-01,8.367168984384925068e-01,5.239620680476356762e-01,5.035897213769803260e-01,7.272727272727292913e-01,4.427004475993533417e-01,1.000000000000000000e+00,1.373632029080531780e-01,1.000000000000000000e+00
7.656217027587099988e-01,6.326848249027237081e-01,3.809471685794045270e-01,8.253929122517347228e-01,0.000000000000000000e+00,5.293595685625414049e-01,6.353336428078434905e-02,7.225057636728301480e-01,3.706842292349339374e-01,8.951023912574039842e-01,0.000000000000000000e+00,5.865518151223840793e-01,5.425438787522900430e-01,6.545272361671362615e-01,6.141409257478822603e-01,4.889213080594706495e-01,3.095498500221988691e-01,4.545454545454593598e-01,7.402364872736597046e-02,4.339466415225746165e-01,1.021811413507032890e-01,1.000000000000000000e+00
3.407510354734356040e-01,2.046692607003890996e-01,1.544683215230464868e-01,3.215778195938887585e-01,2.183790047310054661e-01,3.526894435679311379e-01,3.036419700114671438e-01,2.530312946024336762e-01,1.263706705658145801e-01,4.579553242303078808e-01,1.382217941151937246e-01,0.000000000000000000e+00,5.860503987614892329e-01,2.770366940432414382e-01,2.942560987124033800e-01,0.000000000000000000e+00,4.645521781974509268e-01,5.454545454545493000e-01,3.954425951221002267e-01,1.524418214083848033e-01,2.158062145256205988e-01,1.000000000000000000e+00
5.973954132212646595e-01,4.516212710765240002e-01,5.299757906978711519e-01,4.087271553770566723e-01,5.223776841752313382e-01,4.709777546332757914e-01,5.884045507943076458e-01,1.290282117122657224e-01,2.262961033160712510e-01,1.922739570271697618e-01,3.434985934785999562e-01,5.586586588907611617e-01,6.472634547693654206e-01,6.051463686011427923e-01,6.270006208463082542e-01,4.141529161968650619e-01,2.540201630805548616e-01,6.363636363636393511e-01,7.127582973856913529e-02,1.823576852024375028e-02,3.260036946752680187e-01,1.000000000000000000e+00
2.785292565217158400e-01,1.577172503242542101e-01,3.991106632928245745e-01,3.317906937673155421e-02,1.000000000000000000e+00,1.519162633288968500e-01,5.867545452474911549e-01,0.000000000000000000e+00,4.711145806510320666e-01,1.521616355663996242e-03,1.000000000000000000e+00,3.797309387050759599e-01,6.579006696230050855e-01,4.110267333820726843e-01,6.640347047652312984e-01,3.667937380090988131e-01,4.796799029746499632e-01,6.363636363636393511e-01,5.350204502769712045e-01,4.282876201272265981e-01,1.000000000000000000e+00,1.000000000000000000e+00
5.780099973053294260e-01,4.365758754863813262e-01,3.820865640817355247e-01,5.627256942507206094e-01,2.073950375290488646e-01,4.665861629661831600e-01,3.968658534892604561e-01,2.173299567616787942e-01,2.333220317891718243e-02,5.177374211022782724e-01,2.302155958979769379e-01,6.061543339874184699e-01,6.010360296822210291e-01,6.548060454536009933e-01,6.627046573286204945e-01,1.014893969057764356e-01,7.135586429445460732e-01,4.545454545454593598e-01,5.876400875743270635e-01,1.488155301416803356e-01,3.850921863371070120e-01,1.000000000000000000e+00
5.768291955325344222e-01,4.295719844357976380e-01,3.544065803270188275e-01,4.984551666420716787e-01,2.424294988356343328e-01,5.173081942777489894e-01,3.010179389267640393e-01,4.419781666991584035e-01,4.781147898600023316e-01,5.247628620321305171e-01,3.491471064088861875e-01,6.805109061926594149e-01,5.564359952581140467e-01,4.985948700675376100e-01,0.000000000000000000e+00,7.106976664861647253e-01,2.284860363628488100e-03,4.545454545454593598e-01,2.784243850165790124e-01,1.572246460016287761e-01,4.139737113128864193e-02,1.000000000000000000e+00
7.970870920786529146e-01,7.143968871595330894e-01,4.553354296899330689e-01,8.685834793943187915e-01,2.988462099518176401e-02,6.888714503950201795e-01,1.177015215798614262e-01,1.000000000000000000e+00,6.508505860791304887e-01,1.000000000000000000e+00,1.392024497758172497e-01,7.136317787248658284e-01,0.000000000000000000e+00,6.380905876597859905e-01,5.961932479682908737e-01,4.007394820753611420e-01,4.537884284275612856e-01,3.636363636363686425e-01,1.528435890405966391e-01,7.212176640216346746e-01,2.155977575228798515e-01,1.000000000000000000e+00
7.594819553565451686e-01,6.474708171206225993e-01,8.597182969291397026e-01,4.772174160506699181e-01,7.690228900853505190e-01,4.413853220216205075e-01,9.915914699962143919e-01,1.021543814559724289e-01,8.783837569676080648e-01,6.794776946512016969e-02,6.685953864386610102e-01,2.396173123526146587e-01,8.003372738422946941e-01,7.542606384268698561e-01,7.852167208409055466e-01,3.246720044508008551e-01,6.308813496919228880e-01,8.181818181818193425e-01,9.797506759659720954e-01,4.425176050423127450e-01,7.084757092665907585e-01,1.000000000000000000e+00
5.028654967278880505e-01,3.385214007782101353e-01,3.205909343626618946e-01,3.749166473163149105e-01,3.405799624480674304e-01,4.815876901296716195e-01,5.789708201128996867e-01,2.979600121012145886e-01,3.671812138511689749e-01,3.550061904935970514e-01,2.960046580653761805e-01,8.382732689422734973e-01,6.531934642922265777e-01,4.141981726790249785e-01,1.314493814266409488e-01,1.000000000000000000e+00,0.000000000000000000e+00,2.727272727272786468e-01,4.235838856095114902e-01,1.881220349247650706e-02,3.531484913849876062e-01,1.000000000000000000e+00
2.053950462805387289e-02,6.744487678339818743e-03,1.376983678432695986e-02,5.247491522447009227e-02,4.006470279079055730e-01,0.000000000000000000e+00,8.412561828032815159e-01,1.141982741513913463e-01,4.287702514188908021e-01,2.402071705283069236e-01,5.595905858517133957e-01,3.222044390118354862e-01,7.208313744292006442e-01,0.000000000000000000e+00,1.420895524860368744e-04,4.371905410453147400e-01,1.907371111135174879e-01,3.636363636363686425e-01,0.000000000000000000e+00,8.472562615540085718e-02,4.109389784069051310e-01,1.000000000000000000e+00
5.365598034044175568e-01,3.665369649805447216e-01,2.931250924637898714e-01,4.450936522055283784e-01,2.348518487343131955e-01,6.549946385129592485e-01,5.198362094655091248e-01,3.159931212847683635e-01,3.391346865725058390e-01,4.470391075723378349e-01,3.714560855715534626e-01,9.457925315759709850e-01,6.350077216821307102e-01,4.370922024806930262e-01,4.157565134223368819e-01,1.990269879304623901e-01,6.401615645337693783e-01,3.636363636363686425e-01,6.196528476093024485e-02,6.786355091933521377e-02,1.938504754223162041e-01,0.000000000000000000e+00
3.184650455509182576e-01,1.984435797665369539e-01,9.410135728700634583e-02,3.318224075151445240e-01,1.395839384034747721e-01,4.358754498690051160e-01,1.271873540172266392e-01,3.388103898594213015e-01,9.195367041080941550e-02,5.392701811127674771e-01,1.809565742454279369e-01,6.244069934560247948e-01,5.338069110086837155e-01,2.587747036539004841e-01,2.251543159355049450e-01,4.068868264420182346e-01,1.957724668911821619e-01,2.727272727272786468e-01,1.547642650928538199e-01,1.386064761702403558e-01,2.454259281357922332e-02,0.000000000000000000e+00
0.000000000000000000e+00,0.000000000000000000e+00,0.000000000000000000e+00,0.000000000000000000e+00,4.696696743757458048e-01,7.647818550633458945e-02,1.000000000000000000e+00,9.988180420404427565e-03,0.000000000000000000e+00,1.173074252763760678e-01,3.574949626511375045e-01,5.363556761679127288e-02,7.436747509555335922e-01,4.142486369300633214e-02,1.611007145584018169e-02,5.748256718425653888e-01,9.221739742492988945e-02,0.000000000000000000e+00,3.222765749531316670e-01,1.787493046990353274e-01,5.588297940632922511e-01,0.000000000000000000e+00
2.388629555532508220e-01,1.302204928664072725e-01,1.743195433795179383e-01,1.205790810449788170e-01,5.137933052378693688e-01,5.267666226420006925e-01,4.745934690226855102e-01,2.163093159039338464e-01,3.190246048881363872e-01,3.187920799725256216e-01,4.646401944039903475e-01,8.170737716703604381e-01,6.258682388999521340e-01,1.534008722754278964e-01,1.348046295972371300e-01,6.097662861274266016e-02,6.299175934247999153e-01,2.727272727272786468e-01,1.761144989528498628e-01,1.192686538133740787e-01,3.588154599770477793e-01,0.000000000000000000e+00
1.000000000000000000e+00,1.000000000000000000e+00,7.845601737020506672e-01,9.523678377023732100e-01,2.214852869440296357e-01,4.900316853443146825e-01,3.744921971664163518e-01,6.164093445968047424e-01,7.898487676952693493e-01,6.793623366772653105e-01,2.191220490622563521e-01,6.342210976669200306e-01,5.867663741784326925e-01,8.906209095213684090e-01,8.520684769381774437e-01,4.500555580226072716e-01,4.615959370634671322e-01,5.454545454545493000e-01,4.716468422880628064e-01,7.038301404272934159e-01,6.228847758474684304e-02,0.000000000000000000e+00
4.281924799848288998e-01,2.757457846952010572e-01,2.073242296471245194e-01,3.929610743899527026e-01,1.992427072898716733e-01,5.400887692146078001e-01,8.937081325585861658e-01,3.823927831864041837e-01,3.229500471577520515e-01,5.103621265580190469e-01,1.782809349148815892e-01,8.633108849269893748e-01,7.587389041292940117e-01,3.066739459491301667e-01,2.671451456458986962e-01,3.730454582002802333e-01,3.508939110095617431e-01,5.454545454545493000e-01,1.484237759705414050e-01,2.081892401855245378e-01,2.942404103416211836e-01,0.000000000000000000e+00
4.922471049910977503e-01,3.312581063553826088e-01,1.531350927120854466e-01,5.329576262090308658e-01,1.553938314458933566e-02,7.031894655107764347e-01,9.715746829147210439e-01,4.253939963783375799e-01,1.052078513713812780e-01,6.672464093499584914e-01,4.260856424927166042e-02,6.679151127099073326e-01,9.876237538491967616e-01,3.579745453790191823e-01,3.333154933813877729e-01,3.564819112968103942e-01,4.221035875556325423e-01,1.818181818181806852e-01,4.997766253387425084e-01,2.616829532401511102e-02,1.525689789307833610e-01,0.000000000000000000e+00
6.154176623425074988e-01,4.539559014267185444e-01,3.809822165075212874e-01,5.111770333465451843e-01,2.558270239725763950e-01,5.566268883445054660e-01,5.781502596767501556e-01,5.176436395741120799e-01,5.033528708303145471e-01,6.632280607524809746e-01,3.129257371399448151e-01,8.760342667128862004e-01,6.517640983868157045e-01,4.340487599246450334e-01,4.222573237996203321e-01,4.533089929803550966e-01,2.931443360369042628e-01,3.636363636363686425e-01,4.383011055645520404e-01,3.771596565927421985e-01,2.728077740794435449e-02,0.000000000000000000e+00
5.325665646733396263e-01,3.683527885862516449e-01,2.646835930084892596e-01,4.845056075020007791e-01,1.672105852089368627e-01,2.855906745528676849e-01,7.442016777131883476e-01,5.014580229264532507e-01,1.493375840437866364e-01,7.949507439559029276e-01,1.405588094284618839e-01,5.715567352369617105e-01,7.344227008177810490e-01,3.470020201303863905e-01,3.238473469762387924e-01,5.404865817087701751e-01,3.404550229027472619e-01,2.727272727272786468e-01,8.300928776524956199e-01,1.008974665582013097e-01,2.200790949572517530e-01,0.000000000000000000e+00
4.638949543989458468e-01,3.133592736705577142e-01,4.249179719992110527e-01,2.812044531374834344e-01,5.800593316170529201e-01,1.690078314135040616e-01,3.407454371997172826e-01,2.440569530953566602e-01,8.046453476914844360e-01,1.801613918762301203e-01,6.512111606625693438e-01,4.369492718481688409e-01,6.013103953783648370e-01,4.486467405755799609e-01,4.442190169099106689e-01,4.064657818827043245e-01,6.789392183828386607e-01,5.454545454545493000e-01,3.766414037284008254e-01,0.000000000000000000e+00,1.328486693473489300e-01,0.000000000000000000e+00
3.232693136797494815e-01,1.805447470817120592e-01,3.441227331250341082e-01,9.567137828667264532e-02,7.896941673060277056e-01,4.656336398049583658e-01,7.103936443599702111e-01,1.370813111387280681e-01,6.501434995109616199e-01,0.000000000000000000e+00,5.931395472236765665e-01,6.047115545810269888e-01,1.000000000000000000e+00,3.789258450001837808e-01,3.593549989396002675e-01,7.316902968463754320e-01,7.354868052021180935e-02,1.818181818181806852e-01,1.514736306889850892e-01,2.993873027660355901e-01,2.520847841936367240e-01,0.000000000000000000e+00
9.612396213636764664e-01,9.099870298313877948e-01,5.934691382832248951e-01,1.000000000000000000e+00,4.849267466323600034e-02,6.927041496757088135e-01,9.437699731530455605e-01,5.834589767405049532e-01,6.234127417465770149e-01,7.677253242393179411e-01,1.612011730842712598e-01,5.953704227523912706e-01,8.172100371994914791e-01,7.349178721837656969e-01,7.160619564097815415e-01,3.960478243754885219e-01,5.387180958775055206e-01,1.000000000000000000e+00,1.000000000000000000e+00,8.144323126245219813e-01,1.787960714476237792e-02,0.000000000000000000e+00
7.775307921899531349e-01,6.687418936446173356e-01,4.155281517717655526e-01,8.400264961832584198e-01,1.771702949459756649e-02,6.650805699003852212e-01,3.896883039693646578e-01,8.338577984966890622e-01,6.455653434543759950e-01,9.789415304202134793e-01,2.336436689194865690e-01,9.249763718816546021e-01,5.969830486989122775e-01,6.094990426066612121e-01,5.895042565725021610e-01,3.005567622446730369e-01,4.843362534787269968e-01,5.454545454545493000e-01,2.145060553611197185e-01,5.612625699926467870e-01,0.000000000000000000e+00,0.000000000000000000e+00
